|10001|巴黎|Paris|PAR|NULL|bali|欧洲|法国|NULL|2.351492339147967,48.85746107178952|1|90|NULL|13.13|192|Open
|10002|罗马|Rome|ROM|Roma|luoma|欧洲|意大利|NULL|12.481919085180607,41.893555215391714|1|88|NULL|12.4|343|Open
|10003|威尼斯|Venice|VCE|Venezia|weinisi|欧洲|意大利|NULL|12.31551509999997,45.4408474|1|87|NULL|12.4|688|Open
|10004|佛罗伦萨|Florence|FLR|Firenze|fuluolunsa|欧洲|意大利|NULL|11.248000600000069,43.7710332|1|86|NULL|12.4|687|Open
|10005|米兰|Milan|MIL|Milano|milan|欧洲|意大利|NULL|9.186515999999983,45.4654542|1|85|NULL|12.4|361|Open
|10006|巴塞罗那|Barcelona|BCN|NULL|basailuona|欧洲|西班牙|NULL|2.1734034999999494,41.3850639|1|83|NULL|10.34|707|Open
|10007|阿姆斯特丹|Amsterdam|AMS|NULL|amusitedan|欧洲|荷兰|NULL|4.895167899999933,52.3702157|1|82|NULL|14.12|176|Open
|10008|慕尼黑|Munich|MUC|Muenchen|munihei|欧洲|德国|NULL|11.581980599999952,48.1351253|1|82|NULL|12.6|363|Open
|10009|伦敦|London|LON|NULL|lundun|欧洲|英国|NULL|-0.12759207730709932,51.50776832728631|0|82|NULL|12.73|338|Open
|10010|维也纳|Vienna|VIE|Wien|weiyena|欧洲|奥地利|NULL|16.37381890000006,48.2081743|1|80|NULL|10.81|651|Open
|10011|布拉格|Prague|PRG|Praha|bulage|欧洲|捷克|NULL|14.43780049999998,50.0755381|1|79|NULL|11.6|1288|Open
|10012|柏林|Berlin|BER|NULL|bolin|欧洲|德国|NULL|13.404954,52.5200066|1|79|NULL|12.6|193|Open
|10013|法兰克福|Frankfurt|FRA|NULL|falankefu|欧洲|德国|NULL|8.682126700000026,50.1109221|1|78|NULL|12.6|250|Open
|10014|尼斯|Nice|NCE|NULL|nisi|欧洲|法国|NULL|7.26559199999997,43.696036|1|78|NULL|13.13|775|Open
|10015|布鲁塞尔|Brussels|BRU|Bruxelles|bulusaier|欧洲|比利时|NULL|4.351710300000036,50.84860551814943|1|78|NULL|12.4|196|Open
|10016|卢塞恩|Lucerne|LUX|琉森&#124;Luzern|lusaien|欧洲|瑞士|NULL|8.309733497839375,47.04659187059535|1|78|NULL|11.01|40039|Open
|10017|马德里|Madrid|MAD|NULL|madeli|欧洲|西班牙|NULL|-3.7037901999999576,40.4167754|1|77|NULL|10.34|357|Open
|10018|比萨|Pisa|PSA|NULL|bisa|欧洲|意大利|NULL|10.401688799999988,43.7228386|1|77|NULL|12.4|1347|Open
|10019|苏黎世|Zurich|ZRH|Zuerich|sulishi|欧洲|瑞士|NULL|8.539311246032753,47.36891139016294|1|76|NULL|11.01|434|Open
|10020|日内瓦|Geneva|GVA|Geneve|rineiwa|欧洲|瑞士|NULL|6.1422961,46.1983922|1|76|NULL|11.01|666|Open
|10021|因特拉肯|Interlaken|NULL|NULL|yintelaken|欧洲|瑞士|NULL|7.870065484130919,46.686912673829795|1|76|NULL|11.01|3167|Open
|10022|科隆|Cologne|CGN|Koeln|kelong|欧洲|德国|NULL|6.960149853967323,50.937368736629246|1|76|NULL|12.6|709|Open
|10023|凡尔赛|Versailles|NULL|NULL|fanersai|欧洲|法国|NULL|2.1301220000000285,48.801408|1|75|NULL|13.13|9187|Open
|10024|萨尔茨堡|Salzburg|SZG|NULL|saercibao|欧洲|奥地利|NULL|13.055010000000038,47.80949|1|75|NULL|10.81|739|Open
|10025|斯德哥尔摩|Stockholm|STO|NULL|sidegeermo|欧洲|瑞典|NULL|18.06426626983648,59.32903945727452|1|74|NULL|12.4|420|Open
|10026|爱丁堡|Edinburgh|EDI|NULL|aidingbao|欧洲|英国|NULL|-3.188266999999996,55.953252|0|74|NULL|12.73|706|Open
|10027|布达佩斯|Budapest|BUD|NULL|budapeisi|欧洲|匈牙利|NULL|19.03924794708246,47.49788300565263|2|74|NULL|11.07|637|Open
|10028|哥本哈根|Copenhagen|CPH|Koebenhavn|gebenhagen|欧洲|丹麦|NULL|12.568337100000008,55.6760968|1|73|NULL|13.26|260|Open
|10029|剑桥|Cambridge|NULL|NULL|jianqiao|欧洲|英国|NULL|0.12181699999996454,52.205337|0|73|NULL|12.73|1194|Open
|10030|海德堡|Heidelberg|HDB|NULL|haidebao|欧洲|德国|NULL|8.672433500000011,49.3987524|1|72|NULL|12.6|3333|Open
|10031|牛津|Oxford|OXF|NULL|niujin|欧洲|英国|NULL|-1.2577263000000585,51.7520209|0|72|NULL|12.73|721|Open
|10032|伯尔尼|Bern|BRN|NULL|boerni|欧洲|瑞士|NULL|7.444608499999958,46.9479222|1|72|NULL|11.01|834|Open
|10033|戛纳|Cannes|NULL|NULL|gana|欧洲|法国|NULL|7.017369000000031,43.552847|1|71|NULL|13.13|714|Open
|10034|卢森堡|Luxembourg City|LUX|NULL|lusenbao|欧洲|卢森堡|NULL|6.131762938623069,49.61162099999999|1|71|NULL|10.28|665|Open
|10035|塞维利亚|Seville|SVQ|NULL|saiweiliya|欧洲|西班牙|NULL|-5.982801968786589,37.38830068767074|1|71|NULL|10.34|1350|Open
|10036|洛桑|Lausanne|NULL|NULL|luosang|欧洲|瑞士|NULL|6.633511269311498,46.52010935043077|1|71|NULL|11.01|3154|Open
|10037|阿维尼翁|Avignon|NULL|NULL|aweiniweng|欧洲|法国|NULL|4.805656746032696,43.94942513966025|1|71|NULL|13.13|22367|Open
|10038|汉堡|Hamburg|HAM|NULL|hanbao|欧洲|德国|NULL|9.993553053967275,53.55070215442479|1|71|NULL|12.6|763|Open
|10039|福森|Fussen|NULL|Fuessen|fusen|欧洲|德国|NULL|10.69152269999995,47.5720779|1|71|NULL|12.6|3334|Open
|10040|巴斯|Bath|NULL|NULL|basi|欧洲|英国|NULL|-2.359903900000063,51.375801|0|70|NULL|12.73|1190|Open
|10041|布鲁日|Bruges|NULL|Brugge|buluri|欧洲|比利时|NULL|3.2246995000000425,51.209348|1|70|NULL|12.4|3128|Open
|10042|鹿特丹|Rotterdam|RTM|NULL|lutedan|欧洲|荷兰|NULL|4.481776,51.924216|1|70|NULL|14.12|718|Open
|10043|里斯本|Lisbon|LIS|NULL|lisiben|欧洲|葡萄牙|NULL|-9.139565056005836,38.72114758644618|0|70|NULL|12.27|1231|Open
|10044|曼彻斯特|Manchester|MAN|NULL|manchesite|欧洲|英国|NULL|-2.248485100000039,53.479324|0|70|NULL|12.73|722|Open
|10045|海牙|Den haag|NULL|NULL|haiya|欧洲|荷兰|NULL|4.3006999000000405,52.0704978|1|69|NULL|14.12|715|Open
|10046|马赛|Marseille|MRS|NULL|masai|欧洲|法国|NULL|5.370337899475089,43.296825577710045|1|69|NULL|13.13|712|Open
|10047|赫尔辛基|Helsinki|HEL|NULL|heerxinji|欧洲|芬兰|NULL|24.941024800000037,60.1733244|2|69|NULL|12.86|277|Open
|10048|里昂|Lyon|LYS|NULL|liang|欧洲|法国|NULL|4.835658999999964,45.764043|1|69|NULL|13.13|713|Open
|10049|普罗旺斯|Provence|NULL|NULL|puluowangsi|欧洲|法国|NULL|5.420520799999963,43.4892002|1|69|NULL|13.13|3523|Open
|10050|约克|York|NULL|NULL|yueke|欧洲|英国|NULL|-1.0818844,53.9623008|0|69|NULL|12.73|3566|Open
|10051|奥斯陆|Oslo|OSL|NULL|aosilu|欧洲|挪威|NULL|10.752245399999993,59.9138688|1|68|NULL|14.06|827|Open
|10052|维罗纳|Verona|VRN|NULL|weiluona|欧洲|意大利|NULL|10.991657799999984,45.4383563|1|68|NULL|12.4|1420|Open
|10053|杜塞尔多夫|Dusseldorf|DUS|Duesseldorf|dusaierduofu|欧洲|德国|NULL|6.773455600000034,51.2277411|1|68|NULL|12.6|762|Open
|10054|那不勒斯|Naples|NAP|Napoli|nabulesi|欧洲|意大利|NULL|14.268124400000033,40.8517746|1|68|NULL|12.4|1262|Open
|10055|克鲁姆洛夫|Cesky Krumlov|NULL|NULL|kelumuluofu|欧洲|捷克|NULL|14.317465699999957,48.8127354|1|67|NULL|11.6|4122|Open
|10056|因斯布鲁克|Innsbruck|INN|NULL|yinsibuluke|欧洲|奥地利|NULL|11.404102400000056,47.2692124|1|67|NULL|10.81|1451|Open
|10057|斯图加特|Stuttgart|STR|NULL|situjiate|欧洲|德国|NULL|9.181758800000011,48.7754181|1|67|NULL|12.6|765|Open
|10058|格拉纳达|Granada|GRX|NULL|gelanada|欧洲|西班牙|NULL|-3.5985570999999936,37.1773363|1|67|NULL|10.34|717|Open
|10059|哈尔施塔特|Hallstatt|NULL|NULL|haersitate|欧洲|奥地利|NULL|13.646000133837902,47.562002529075215|1|67|NULL|10.81|9685|Open
|10060|托莱多|Toledo|NULL|NULL|tuolaiduo|欧洲|西班牙|NULL|-4.02732309999999,39.8628316|1|67|NULL|10.34|3515|Open
|10061|伯明翰|Birmingham|BHX|NULL|bominghan|欧洲|英国|NULL|-1.890701407409665,52.486347533397364|0|66|NULL|12.73|1270|Open
|10062|锡耶纳|Siena|NULL|NULL|xiyena|欧洲|意大利|NULL|11.333847304785195,43.320557460310496|1|66|NULL|12.4|3652|Open
|10063|安特卫普|Antwerp|ANR|NULL|anteweipu|欧洲|比利时|NULL|4.40246430000002,51.2194475|1|66|NULL|12.4|1767|Open
|10064|英国湖区|Lake District National Park|NULL|NULL|yingguohuqu|欧洲|英国|NULL|-3.127644000000032,54.6011223|0|66|爱丁堡&#124;曼彻斯特|12.73|NULL|Close
|10065|格拉斯哥|Glasgow|GLA|NULL|gelasige|欧洲|英国|NULL|-4.251805999999988,55.864237|0|66|NULL|12.73|780|Open
|10066|蒙特勒|Montreux|NULL|NULL|mengtele|欧洲|瑞士|NULL|6.910275400000046,46.4360031|1|66|NULL|11.01|3163|Open
|10067|五渔村|Cinque terre|NULL|NULL|wuyucun|欧洲|意大利|NULL|9.72838200000001,44.106878|1|66|比萨&#124;佛罗伦萨|12.4|NULL|Close
|10068|巴塞尔|Basel|BSL|NULL|basaier|欧洲|瑞士|NULL|7.598752509570318,47.569467583105435|1|66|NULL|11.01|806|Open
|10069|庞贝|Pompeii|NULL|NULL|pangbei/庞培城|欧洲|意大利|NULL|14.499026899011255,40.746181546874084|1|65|NULL|12.4|54760|Open
|10070|波恩|Bonn|BNJ|NULL|boen|欧洲|德国|NULL|7.098378461377024,50.73751148010107|1|65|NULL|12.6|1450|Open
|10071|卑尔根|Bergen|BGO|NULL|beiergen|欧洲|挪威|NULL|5.32205440000007,60.3912628|1|65|NULL|14.06|821|Open
|10072|利物浦|Liverpool|LPL|NULL|liwupu|欧洲|英国|NULL|-2.9916155153442787,53.40824348899981|0|64|NULL|12.73|3187|Open
|10073|德累斯顿|Dresden|NULL|NULL|deleisidun|欧洲|德国|NULL|13.737262099999953,51.0504088|1|64|NULL|12.6|5559|Open
|10074|枫丹白露|Fontainebleau|NULL|NULL|fengdanbailu|欧洲|法国|NULL|2.701620000000048,48.404676|1|64|NULL|13.13|22968|Open
|10075|羊角村|Giethoorn|NULL|NULL|yangjiaocun|欧洲|荷兰|NULL|6.078846935720776,52.73926201586772|1|64|NULL|14.12|38659|Open
|10076|塞哥维亚|Segovia|NULL|NULL|saigeweiya|欧洲|西班牙|NULL|-4.107723612658674,40.94197418029192|1|64|NULL|10.34|4058|Open
|10077|巨石阵|Stonehenge|NULL|NULL|jushizhen|欧洲|英国|NULL|-1.8260438386230362,51.17882849348145|0|64|巴斯&#124;伦敦|12.73|NULL|Close
|10078|纽伦堡|Nuremberg|NUE|Nuernberg|niulunbao|欧洲|德国|NULL|11.076707084655709,49.45225318827854|1|64|NULL|12.6|764|Open
|10079|贝希特斯加登|Berchtesgaden|NULL|NULL|beixitesijiadeng|欧洲|德国|NULL|13.000074199999972,47.6301796|1|64|NULL|12.6|3870|Open
|10080|采尔马特|Zermatt|NULL|Zermatt|caiermate|欧洲|瑞士|NULL|7.747937200000024,46.0210726|1|63|NULL|11.01|NULL|Close
|10081|黑森林|Black Forest|NULL|NULL|heisenlin|欧洲|德国|NULL|8.19122630000004,48.3258845|1|63|NULL|12.6|4231|Open
|10082|罗滕堡|Rothenburg ob der tauber|NULL|NULL|luotengbao|欧洲|德国|NULL|10.186610053967343,49.38032309713985|1|63|NULL|12.6|3467|Open
|10083|巴登巴登|Baden baden|NULL|NULL|badengbadeng|欧洲|德国|NULL|8.229382506884804,48.766828050198306|1|62|NULL|12.6|3458|Open
|10084|辛特拉|Sintra|NULL|NULL|xintela|欧洲|葡萄牙|NULL|-9.381658900000048,38.8028687|0|62|NULL|12.27|NULL|Close
|10085|阿尔勒|Arles|NULL|NULL|aerle|欧洲|法国|NULL|4.6275020000000495,43.676675|1|62|NULL|13.13|47625|Open
|10086|斯特拉斯堡|Strasbourg|SXB|NULL|sitelasibao|欧洲|法国|NULL|7.747924915344242,48.583318339072825|1|62|NULL|13.13|1354|Open
|10087|科尔多瓦|Cordoba|NULL|NULL|keerduowa|欧洲|西班牙|NULL|-4.7793834999999945,37.8881751|1|62|NULL|10.34|4189|Open
|10088|波尔图|Porto|OPO|NULL|boertu|欧洲|葡萄牙|NULL|-8.623925399999962,41.1566892|0|62|NULL|12.27|826|Open
|10089|波茨坦|Potsdam|NULL|NULL|bocitan|欧洲|德国|NULL|13.076875246063196,52.39452914318409|1|62|NULL|12.6|30044|Open
|10090|根特|Ghent|GNE|Gent|gente|欧洲|比利时|NULL|3.717424299999948,51.0543422|1|61|NULL|12.4|3423|Open
|10091|瓦伦西亚|Valencia|VLC|NULL|walunxiya|欧洲|西班牙|NULL|-0.37611643862305755,39.470006886530214|1|61|NULL|10.34|1351|Open
|10092|华沙|Warsaw|WAW|NULL|huasha|欧洲|波兰|NULL|21.012228700000037,52.2296756|1|61|NULL|10.41|293|Open
|10093|加迪夫|Cardiff|NULL|加的夫|jiadifu|欧洲|英国|NULL|-3.1790899999999738,51.481581|0|61|NULL|12.73|NULL|Close
|10094|圣米歇尔山|Mont Saint Michel|NULL|NULL|shengmixieershan|欧洲|法国|NULL|-1.5112048999999388,48.6357942|1|61|NULL|13.13|3537|Open
|10095|波尔多|Bordeaux|BOD|NULL|boerduo|欧洲|法国|NULL|-0.5792658306884277,44.837728136924895|1|61|NULL|13.13|776|Open
|10096|布莱顿|Brighton|NULL|NULL|bulaidun|欧洲|英国|NULL|-0.13660510052488917,50.822611331955954|0|61|NULL|12.73|34152|Open
|10097|尼斯湖|Loch Ness|NULL|NULL|nisihu|欧洲|英国|NULL|-4.424381700000026,57.3228575|0|60|因弗内斯|12.73|NULL|Close
|10098|维尔茨堡|Wurzburg|NULL|Wuerzburg|weiercibao|欧洲|德国|NULL|9.953571499999953,49.7915953|1|60|NULL|12.6|7742|Open
|10099|汉诺威|Hannover|HAJ|NULL|hannuowei|欧洲|德国|NULL|9.732010400000036,52.3758916|1|60|NULL|12.6|1248|Open
|10100|第戎|Dijon|NULL|NULL|dirong|欧洲|法国|NULL|5.041823322753885,47.32088333448432|1|60|NULL|13.13|3339|Open
|10101|热那亚|Genova|GOA|NULL|renaya|欧洲|意大利|NULL|8.946255999999948,44.4056499|1|60|NULL|12.4|1433|Open
|10102|博洛尼亚|Bologna|BLQ|NULL|boluoniya|欧洲|意大利|NULL|11.342616300000032,44.494887|1|60|NULL|12.4|1240|Open
|10103|不来梅|Bremen|BRE|NULL|bulaimei|欧洲|德国|NULL|8.801693699999987,53.0792962|1|60|NULL|12.6|1359|Open
|10104|哥德堡|Goteborg|GOT|NULL|gedebao|欧洲|瑞典|NULL|11.974559999999997,57.70887|1|60|NULL|12.4|804|Open
|10105|利兹|Leeds|LBA|NULL|lici|欧洲|英国|NULL|-1.5485670000000482,53.801279|0|60|NULL|12.73|1733|Open
|10106|布里斯托尔|Bristol|BRS|NULL|bulisituoer|欧洲|英国|NULL|-2.5879099999999653,51.454513|0|59|NULL|12.73|838|Open
|10107|亚琛|Aachen|AAH|NULL|yachen|欧洲|德国|NULL|6.083886799999959,50.7753455|1|59|NULL|12.6|3457|Open
|10108|阿讷西|Annecy|NULL|NULL|anaxi/安娜西|欧洲|法国|NULL|6.122689206298787,45.89655901813735|1|59|NULL|13.13|23119|Open
|10109|克拉科夫|Krakow|NULL|NULL|kelakefu|欧洲|波兰|NULL|19.944851153967306,50.06500822707241|1|59|NULL|10.41|23683|Open
|10110|科布伦茨|Koblenz|NULL|NULL|kebulunci|欧洲|德国|NULL|7.589907000000039,50.360025|1|59|NULL|12.6|NULL|Close
|10111|天空之岛|Isle of Skye|NULL|斯凯岛|tiankongzhidao|欧洲|英国|NULL|-6.22627250000005,57.5359261|0|59|因弗内斯|12.73|NULL|Close
|10112|松恩峡湾|Sognefjorden|NULL|NULL|ensongxiawan|欧洲|挪威|NULL|6.580633700000021,61.1554244|1|59|奥斯陆&#124;卑尔根|14.06|NULL|Close
|10113|卢瓦尔河谷|Loire|NULL|NULL|luwaerhegu|欧洲|法国|NULL|4.039498735351572,45.98953772690775|1|59|图尔|13.13|NULL|Close
|10114|弗赖堡|Freiburg|NULL|NULL|fulaibao|欧洲|德国|NULL|7.84210429999996,47.9990077|1|59|NULL|12.6|30270|Open
|10115|马尔默|Malmo|MMA|NULL|maermo|欧洲|瑞典|NULL|13.003822000000014,55.604981|1|59|NULL|12.4|3747|Open
|10116|马拉加|Malaga|AGP|NULL|malajia|欧洲|西班牙|NULL|-4.421265500000004,36.721261|1|59|NULL|10.34|1268|Open
|10117|美因茨|Mainz|NULL|NULL|meiyinci|欧洲|德国|NULL|8.247252600000024,49.9928617|1|59|NULL|12.6|7499|Open
|10118|卢加诺|Lugano|LUG|NULL|lujianuo|欧洲|瑞士|NULL|8.952312099999972,46.0065117|1|59|NULL|11.01|3319|Open
|10119|乌得勒支|Utrecht|NULL|NULL|wudelezhi|欧洲|荷兰|NULL|5.115149257147209,52.09156587897702|1|58|NULL|14.12|719|Open
|10120|温德米尔 波尼斯|Windermere Bowness|NULL|NULL|wendemierbonisi|欧洲|英国|英国湖区|-2.9067850000000135,54.380685|0|58|爱丁堡&#124;曼彻斯特|12.73|NULL|Close
|10121|诺丁汉|Nottingham|NQT|NULL|nuodinghan|欧洲|英国|NULL|-1.1581085999999914,52.9547832|0|58|NULL|12.73|1199|Open
|10122|尼姆|Nimes|FNI|NULL|nimu|欧洲|法国|NULL|4.360053999999991,43.836699|1|58|NULL|13.13|6749|Open
|10123|康斯坦茨|Constance|NULL|NULL|kangsitanci|欧洲|德国|NULL|9.173238399999946,47.6779496|1|58|NULL|12.6|9805|Open
|10124|阿马菲|Amalfi|NULL|NULL|amafei|欧洲|意大利|NULL|14.60268050000002,40.6340026|1|57|那不勒斯|12.4|NULL|Close
|10125|索伦托|Sorrento|NULL|NULL|suoluntuo|欧洲|意大利|NULL|14.379575050292942,40.621797472068536|1|57|NULL|12.4|33215|Open
|10126|卡罗维发利|Karlovy Vary|KLV|NULL|kaluoweifali|欧洲|捷克|NULL|12.871961599999963,50.2318521|1|57|NULL|11.6|3456|Open
|10127|莱比锡|Leipzig|LEJ|NULL|laibixi|欧洲|德国|NULL|12.373074699999961,51.3396955|1|57|NULL|12.6|1296|Open
|10128|都灵|Turin|TRN|Torino|duling|欧洲|意大利|NULL|7.685676000000058,45.070982|1|57|NULL|12.4|1263|Open
|10129|龙达|Ronda|NULL|NULL|longda|欧洲|西班牙|NULL|-5.161243275146489,36.74626435708142|1|57|NULL|10.34|NULL|Close
|10130|卢卡|Lucca|NULL|NULL|luka|欧洲|意大利|NULL|10.495060899999999,43.8376211|1|57|NULL|12.4|3635|Open
|10131|纽卡斯尔|Newcastle|NCL|NULL|niukasier|欧洲|英国|NULL|-1.6146900952148826,54.9770698111376|0|57|NULL|12.73|1289|Open
|10132|贝尔法斯特|Belfast|BFS|NULL|beierfasite|欧洲|英国|NULL|-5.930119999999988,54.597285|0|57|NULL|12.73|777|Open
|10133|班贝格|Bamberg|ZCD|NULL|banbeige|欧洲|德国|NULL|10.9027636,49.8988135|1|57|NULL|12.6|7735|Open
|10134|劳特布龙嫩|Lauterbrunnen|NULL|NULL|laotebulongnen/卢德本纳|欧洲|瑞士|NULL|7.913830216979932,46.60522102405218|1|57|NULL|11.01|40023|Open
|10135|曼海姆|Mannheim|MHG|NULL|manhaimu|欧洲|德国|NULL|8.466039499999965,49.4874592|1|57|NULL|12.6|3464|Open
|10136|谢菲尔德|Sheffield|SZD|NULL|xiefeierde|欧洲|英国|NULL|-1.47008500000004,53.381129|0|56|NULL|12.73|3191|Open
|10137|施皮茨|Spiez|NULL|NULL|shipici|欧洲|瑞士|NULL|7.678161300000056,46.6859237|1|56|NULL|11.01|40189|Open
|10138|代尔夫特|Delft|NULL|NULL|daierfute|欧洲|荷兰|NULL|4.357067700000016,52.0115769|1|56|NULL|14.12|9545|Open
|10139|考文垂|Coventry|NULL|NULL|kaowenchui|欧洲|英国|NULL|-1.519692999999961,52.406822|0|56|NULL|12.73|3544|Open
|10140|埃森|Essen|NULL|NULL|aisen|欧洲|德国|NULL|7.011555199999975,51.4556432|1|56|NULL|12.6|3459|Open
|10141|罗瓦涅米|Rovaniemi|NULL|NULL|luowaniemi|欧洲|芬兰|NULL|25.724999000000025,66.4970216|2|56|NULL|12.86|30021|Open
|10142|因弗内斯|Inverness|NULL|NULL|yinfuneisi|欧洲|英国|NULL|-4.224721000000045,57.477773|0|56|NULL|12.73|29684|Open
|10143|浪漫之路|Romantic road|NULL|NULL|langmanzhilu|欧洲|德国|NULL|-115.276928,36.3120777|1|56|福森&#124;维尔茨堡&#124;罗滕堡|12.6|NULL|Close
|10144|奥格斯堡|Augsburg|AGB|NULL|aogesibao|欧洲|德国|NULL|10.899542660327143,48.37126964802382|1|56|NULL|12.6|1415|Open
|10145|图卢兹|Toulouse|TLS|NULL|tuluzi|欧洲|法国|NULL|1.4442090000000007,43.604652|1|56|NULL|13.13|1361|Open
|10146|马斯特里赫特|Maastricht|NULL|NULL|masitelihete|欧洲|荷兰|NULL|5.6909725000000435,50.8513682|1|56|NULL|14.12|7668|Open
|10147|艾克斯|Aix en Provence|NULL|NULL|aikesi|欧洲|法国|NULL|5.4474270000000615,43.529742|1|55|NULL|13.13|7635|Open
|10148|科莫|Como|NULL|NULL|kemo|欧洲|意大利|NULL|9.085562738098133,45.80829901750363|1|55|NULL|12.4|49754|Open
|10149|里尔|Lille|LIL|NULL|lier|欧洲|法国|NULL|3.057256000000052,50.62925|1|55|NULL|13.13|1462|Open
|10150|卡普里岛|Capri|NULL|NULL|kapulidao|欧洲|意大利|NULL|14.222154000000046,40.5532009|1|55|那不勒斯|12.4|NULL|Close
|10151|多特蒙德|Dortmund|DTM|NULL|duotemengde|欧洲|德国|NULL|7.465298100000041,51.5135872|1|55|NULL|12.6|1411|Open
|10152|库特纳霍拉|Kutna hora|NULL|NULL|katenahuola|欧洲|捷克|NULL|15.268868176721185,49.952928426680465|1|55|NULL|11.6|38742|Open
|10153|莱顿|Leiden|NULL|NULL|laidun|欧洲|荷兰|NULL|4.4965423227538395,52.157756818993|1|55|NULL|14.12|3711|Open
|10154|特里尔|Trier|NULL|NULL|telier|欧洲|德国|NULL|6.637143299999934,49.749992|1|55|NULL|12.6|3469|Open
|10155|米伦|Murren|NULL|NULL|milun|欧洲|瑞士|NULL|7.89264449999996,46.559373|1|55|NULL|11.01|9982|Open
|10156|图尔|Tours|TUF|NULL|tuer|欧洲|法国|NULL|0.6849258306884849,47.39394063845112|1|55|NULL|13.13|1825|Open
|10157|红土城|Roussillon|NULL|NULL|hongtucheng|欧洲|法国|NULL|5.292077693115289,43.90179825381524|1|55|阿维尼翁|13.13|NULL|Close
|10158|林茨|Linz|LNZ|NULL|linci|欧洲|奥地利|NULL|14.28583,48.30694|1|55|NULL|10.81|815|Open
|10159|吕贝克|Lubeck|NULL|NULL|lvbeike|欧洲|德国|NULL|10.6870959,53.8658856|1|54|NULL|12.6|3133|Open
|10160|格拉斯|Grasse|NULL|NULL|gelasi|欧洲|法国|NULL|6.926492000000053,43.660153|1|54|NULL|13.13|NULL|Close
|10161|吕瑟峡湾|Lysefjord|NULL|NULL|lvsexiawan|欧洲|挪威|NULL|6.31682330000001,59.0049149|1|54|卑尔根|14.06|NULL|Close
|10162|南安普敦|Southampton|SOU|NULL|nananpudun|欧洲|英国|NULL|-1.404350900000054,50.9097004|0|54|NULL|12.73|3857|Open
|10163|圣吉米亚诺|San gimignano|NULL|NULL|shengjimiyanuo|欧洲|意大利|NULL|11.043490900000052,43.4676324|1|54|NULL|12.4|NULL|Close
|10164|朴次茅斯|Portsmouth|804|NULL|pucimaosi|欧洲|英国|NULL|-1.0833333000000493,50.8166667|0|54|NULL|12.73|7741|Open
|10165|怀特岛|Isle of wight|NULL|NULL|huaitedao|欧洲|英国|NULL|-1.316710300000068,50.6927176|0|54|朴茨茅斯|12.73|NULL|Close
|10166|格林德瓦|Grindelwald|NULL|NULL|gelindewa|欧洲|瑞士|NULL|8.030958599999963,46.6248928|1|54|NULL|11.01|3143|Open
|10167|图恩|Thun|NULL|NULL|tuen|欧洲|瑞士|NULL|7.624925208984223,46.74886948401457|1|54|NULL|11.01|40224|Open
|10168|蒙彼利埃|Montpellier|MPL|NULL|mengpiliai|欧洲|法国|NULL|3.876716,43.610769|1|54|NULL|13.13|1294|Open
|10169|切斯特|Chester|NULL|NULL|qisite|欧洲|英国|NULL|-2.893075,53.193392|0|54|NULL|12.73|3185|Open
|10170|斯塔万格|Stavanger|SKN|NULL|sitawange|欧洲|挪威|NULL|5.7331073,58.9699756|1|54|NULL|14.06|5884|Open
|10171|赫尔辛堡|Helsingborg|AGH|NULL|heerxinbao|欧洲|瑞典|NULL|12.6945121,56.0464674|1|53|NULL|12.4|6666|Open
|10172|沃韦|Vevey|NULL|NULL|wowei|欧洲|瑞士|NULL|6.843590014294477,46.463617429268055|1|53|NULL|11.01|40261|Open
|10173|帕勒莫|Palermo|NULL|巴勒莫|palemo|欧洲|意大利|NULL|13.361267099999964,38.1156879|1|53|NULL|12.4|NULL|Close
|10174|巴德依舍|Bad ischl|NULL|NULL|badeyishe|欧洲|奥地利|NULL|13.62110113068843,47.71205326622625|1|53|NULL|10.81|NULL|Close
|10175|圣安德鲁斯|St andrews|NULL|NULL|shengandelusi|欧洲|英国|NULL|-2.7963712539673224,56.33860238829423|0|53|NULL|12.73|NULL|Close
|10176|埃兹|Eze|NULL|NULL|aizi|欧洲|法国|NULL|7.361792000000037,43.7278189|1|53|NULL|13.13|NULL|Close
|10177|威廉堡|Fort William|NULL|NULL|weilianbao|欧洲|英国|NULL|-5.105218000000036,56.819817|0|53|NULL|12.73|9621|Open
|10178|泉水城|Fontaine-de-Vaucluse|NULL|NULL|quanshuicheng|欧洲|法国|NULL|5.126884000000018,43.922443|1|53|阿维尼翁|13.13|NULL|Close
|10179|盖朗厄尔峡湾|Geirangerfjorden|NULL|NULL|gailangeerxiawan|欧洲|挪威|NULL|7.068091800000047,62.0931033|1|53|NULL|14.06|NULL|Non
|10180|乌尔姆|Ulm|NULL|NULL|wuermu|欧洲|德国|NULL|9.979348999999957,48.4042981|1|52|NULL|12.6|9163|Open
|10181|斯特灵|Stirling|NULL|NULL|siteling|欧洲|英国|NULL|-3.93690289999995,56.1165227|0|52|NULL|12.73|3196|Open
|10182|霞慕尼|Chamonix|NULL|NULL|xiamuni|欧洲|法国|NULL|6.869432999999958,45.923697|1|52|NULL|13.13|NULL|Close
|10183|拉斯佩齐亚|La spezia|NULL|NULL|lasipeiqiya|欧洲|意大利|NULL|9.823825107934567,44.102696938365796|1|52|NULL|12.4|NULL|Close
|10184|卡尔卡松|Carcassonne|CCF|NULL|kaerkasong|欧洲|法国|NULL|2.353662999999983,43.212161|1|52|NULL|13.13|5024|Open
|10185|萨拉曼卡|Salamanca|SLM|NULL|salamanka|欧洲|西班牙|NULL|-5.663539700000001,40.9701039|1|52|NULL|10.34|5892|Open
|10186|沃斯|Voss|NULL|NULL|wosi|欧洲|挪威|NULL|6.422238500000049,60.6297551|1|52|NULL|14.06|4127|Open
|10187|沙夫豪森|Schaffhausen|NULL|NULL|shafuhaosen|欧洲|瑞士|NULL|8.643631082556112,47.707448738162206|1|52|NULL|11.01|40167|Open
|10188|埃因霍温|Eindhoven|NULL|NULL|aiyinhuowen|欧洲|荷兰|NULL|5.469722499999989,51.441642|1|52|NULL|14.12|NULL|Close
|10189|兰斯|Reims|NULL|NULL|lansi|欧洲|法国|NULL|4.031696000000011,49.258329|1|52|NULL|13.13|3539|Open
|10190|弗洛姆|Flåm|NULL|NULL|fuluomu|欧洲|挪威|NULL|7.114833085180635,60.86095483269139|1|52|NULL|14.06|39161|Open
|10191|坎特伯雷|Canterbury|NULL|NULL|kantebolei|欧洲|英国|NULL|1.0846595561279173,51.279051846302195|0|51|NULL|12.73|34559|Open
|10192|雷根斯堡|Regensburg|NULL|NULL|leigensibao|欧洲|德国|NULL|12.100855899999942,49.0145423|1|51|NULL|12.6|3132|Open
|10193|阿伯丁|Aberdeen|ABZ|NULL|aboding|欧洲|英国|NULL|-2.094278000000031,57.149717|0|51|NULL|12.73|1195|Open
|10194|魏玛|Weimar|NULL|NULL|weima|欧洲|德国|NULL|11.322539799999959,50.984712|1|51|NULL|12.6|9222|Open
|10195|基律纳|Kiruna|KRN|NULL|jilvna|欧洲|瑞典|NULL|20.22528209999996,67.8557995|1|51|NULL|12.4|7225|Open
|10196|梅青根|Metzingen|NULL|NULL|meiqinggen|欧洲|德国|NULL|9.285032808984397,48.54058163567147|1|51|NULL|12.6|31003|Open
|10197|科尔马|Colmar|NULL|NULL|keerma|欧洲|法国|NULL|7.358512000000019,48.0793589|1|51|NULL|13.13|NULL|Close
|10198|文根|Wengen|NULL|NULL|wengen|欧洲|瑞士|NULL|7.9213399999999865,46.605|1|51|NULL|11.01|NULL|Close
|10199|南特|Nantes|NTE|NULL|nante|欧洲|法国|NULL|-1.553621000000021,47.218371|1|51|NULL|13.13|1484|Open
|10200|芒通|Menton|XMT|NULL|mangtong|欧洲|法国|NULL|7.497539999999958,43.774481|1|51|NULL|13.13|7737|Open
|10201|莱斯特|Leicester|NULL|NULL|laisite|欧洲|英国|NULL|-1.1397591999999577,52.6368778|0|50|NULL|12.73|3552|Open
|10202|欧登塞|Odense|ODE|NULL|oudengsai|欧洲|丹麦|NULL|10.402370000000019,55.403756|1|50|NULL|13.26|781|Open
|10203|布里恩茨|Brienz|NULL|NULL|bulienci|欧洲|瑞士|NULL|8.029952215344224,46.75660919875003|1|50|NULL|11.01|39836|Open
|10204|格勒诺布尔|Grenoble|GNB|NULL|gelenuobuer|欧洲|法国|NULL|5.724523999999974,45.188529|1|50|NULL|13.13|1719|Open
|10205|萨拉戈萨|Zaragoza|ZAZ|NULL|salagesa|欧洲|西班牙|NULL|-0.8895810999999867,41.6487908|1|50|NULL|10.34|3519|Open
|10206|鲁昂|Rouen|URO|NULL|luang|欧洲|法国|NULL|1.0999709999999823,49.443232|1|50|NULL|13.13|3541|Open
|10207|舍农索|Chenonceaux|NULL|NULL|shenongsuo|欧洲|法国|NULL|1.0675260000000435,47.331681|1|50|图尔|13.13|NULL|Close
|10208|波西塔诺|Positano|NULL|NULL|boxitanuo|欧洲|意大利|NULL|14.484981199999993,40.62854135888674|1|50|NULL|12.4|3642|Open
|10209|毕尔巴鄂|Bilbao|BIO|NULL|bierbae|欧洲|西班牙|NULL|-2.9353912508788653,43.26306575706933|1|50|NULL|10.34|772|Open
|10210|里米尼|Rimini|RMI|NULL|limini|欧洲|意大利|NULL|12.564600299999938,44.0570817|1|50|NULL|12.4|1429|Open
|10211|马略卡岛|Mallorca|NULL|NULL|malvekadao|欧洲|西班牙|NULL|3.025467623339864,39.69499872898972|1|50|NULL|10.34|61465|Open
|10212|赫尔辛格|Helsingør|NULL|NULL|heerxinge|欧洲|丹麦|NULL|12.591912423278814,56.03090689398862|1|50|NULL|13.26|38019|Open
|10213|格罗宁根|Groningen|GRQ|NULL|geluoninggen|欧洲|荷兰|NULL|6.566501799999969,53.2193835|1|50|NULL|14.12|6848|Open
|10214|乌普萨拉|Uppsala|NULL|NULL|wupusala|欧洲|瑞典|NULL|17.638926699999956,59.8585638|1|50|NULL|12.4|9167|Open
|10215|伯恩茅斯|Bournemouth|BOH|NULL|boenmaosi|欧洲|英国|NULL|-1.8807689999999866,50.719164|0|50|NULL|12.73|4801|Open
|10216|卡斯凯什|Cascais|NULL|NULL|kasikaishi|欧洲|葡萄牙|NULL|-9.422294500000021,38.6970565|0|50|NULL|12.27|NULL|Close
|10217|奥胡斯|Aarhus|AAR|NULL|aohusi|欧洲|丹麦|NULL|10.203921000000037,56.162939|1|50|NULL|13.26|3324|Open
|10218|沃尔夫斯堡|Wolfsburg|NULL|NULL|woerfusibao|欧洲|德国|NULL|10.78654610000001,52.4226503|1|49|NULL|12.6|19703|Open
|10219|卡塔尼亚|Catania|CTA|NULL|kataniya|欧洲|意大利|NULL|15.08285120000005,37.5080386|1|49|NULL|12.4|1419|Open
|10220|奥勒松|Alesund|AES|NULL|NULL|欧洲|挪威|NULL|6.1494820000000345,62.4722284|-100|49|NULL|14.06|6649|Open
|10221|贝加莫|Bergamo|NULL|NULL|beijiamo|欧洲|意大利|NULL|9.677269799999976,45.6982642|1|49|NULL|12.4|3627|Open
|10222|布尔诺|Brno|BRQ|NULL|buernuo|欧洲|捷克|NULL|16.606837100000007,49.1950602|1|49|NULL|11.6|3455|Open
|10223|林道|Lindau|NULL|NULL|lindao|欧洲|德国|NULL|9.707209000000034,47.557401|1|49|NULL|12.6|30872|Open
|10224|陶尔米纳|Taormina|NULL|NULL|taoermina|欧洲|意大利|NULL|15.285312699999963,37.8516366|1|49|NULL|12.4|NULL|Close
|10225|卡昂|Caen|CFR|NULL|kaang|欧洲|法国|NULL|-0.37067899999999554,49.182863|1|49|NULL|13.13|7504|Open
|10226|诺曼底|Normandy|NULL|NULL|nuomandi|欧洲|法国|NULL|0.20764511191407564,48.893866972254074|1|49|NULL|13.13|NULL|Close
|10227|克雷姆斯|Krems an der donau|NULL|NULL|keleimusi|欧洲|奥地利|NULL|15.603797084655753,48.41013243493063|1|49|NULL|10.81|9811|Open
|10228|阿西西|Assisi|NULL|NULL|axixi|欧洲|意大利|NULL|12.619596600000023,43.0707017|1|49|NULL|12.4|NULL|Close
|10229|盖朗厄尔|Geiranger|NULL|NULL|gailangeer|欧洲|挪威|NULL|7.2072785000000295,62.1018025|1|49|NULL|14.06|NULL|Non
|10230|图尔库|Turku|TKU|NULL|tuerku|欧洲|芬兰|NULL|22.259231,60.4493248|1|48|NULL|12.86|1795|Open
|10231|佩鲁贾|Perugia|PEG|NULL|peilujia|欧洲|意大利|NULL|12.390827899999977,43.1107168|1|48|NULL|12.4|3639|Open
|10232|普利茅斯|Plymouth|PLH|NULL|pulimaosi|欧洲|英国|NULL|-4.14265649999993,50.3754565|0|48|NULL|12.73|3561|Open
|10233|温彻斯特|Winchester|NULL|NULL|wenchesite|欧洲|英国|NULL|-1.3101420000000417,51.059771|0|48|NULL|12.73|9235|Open
|10234|英格堡|Engelberg|NULL|NULL|yinggebao|欧洲|瑞士|NULL|8.406986899999993,46.8199317|1|48|NULL|11.01|3443|Open
|10235|布洛瓦|Blois|NULL|布卢瓦|buluowa|欧洲|法国|NULL|1.3353706777710386,47.586331078289795|1|48|NULL|13.13|NULL|Close
|10236|威斯巴登|Wiesbaden|NULL|NULL|weisibadeng|欧洲|德国|NULL|8.243343699999969,50.0630804|1|48|NULL|12.6|3135|Open
|10237|坦佩雷|Tampere|TMP|NULL|tanpeilei|欧洲|芬兰|NULL|23.761025399999994,61.4981508|2|48|NULL|12.86|1796|Open
|10238|土伦|Toulon|TLN|NULL|tulun|欧洲|法国|NULL|5.927999999999997,43.124228|1|48|NULL|13.13|1729|Open
|10239|圣加仑|St Gallen|NULL|NULL|shengjialun|欧洲|瑞士|NULL|9.364396800000009,47.4179284|1|48|NULL|11.01|3161|Open
|10240|斯特拉福德|Stratford upon Avon|NULL|NULL|aiwenhepansitelafude|欧洲|英国|NULL|-1.7082980000000134,52.19173|0|48|NULL|12.73|NULL|Close
|10241|隆德|Lund|39611|NULL|longde|欧洲|瑞典|NULL|13.191007300000024,55.7046601|1|48|NULL|12.4|NULL|Open
|10242|格拉茨|Graz|GRZ|NULL|gelaci|欧洲|奥地利|NULL|15.439503999999943,47.070714|1|48|NULL|10.81|805|Open
|10243|法罗|Faro|NULL|NULL|faluo|欧洲|葡萄牙|NULL|-7.930439699999965,37.0193548|0|48|NULL|12.27|NULL|Close
|10244|多佛尔|Dover|NULL|NULL|duofoer|欧洲|英国|NULL|1.3134026999999833,51.1278758|0|48|NULL|12.73|1197|Open
|10245|德比|Derby|NULL|NULL|debi|欧洲|英国|NULL|-1.4746185999999852,52.9225301|0|48|NULL|12.73|10284|Open
|10246|特罗姆瑟|Tromso|TOS|NULL|teluomuse|欧洲|挪威|NULL|18.955323799999974,69.6492047|1|47|NULL|14.06|3713|Open
|10247|圣马洛|Saint-Malo|NULL|NULL|shengmaluo|欧洲|法国|NULL|-2.025673999999981,48.649337|1|47|NULL|13.13|3540|Open
|10248|洛迦诺|Locarno|NULL|NULL|luojianuo|欧洲|瑞士|NULL|8.7889791,46.1679583|1|47|NULL|11.01|3156|Open
|10249|南锡|Nancy|NULL|NULL|nanxi|欧洲|法国|NULL|6.184417,48.692054|1|47|NULL|13.13|3532|Open
|10250|昂热|Angers|ANE|NULL|angre|欧洲|法国|NULL|-0.563166,47.478419|1|47|NULL|13.13|1738|Open
|10251|哈勒姆|Haarlem|NULL|NULL|halemu|欧洲|荷兰|NULL|4.635956,52.383626|1|47|NULL|14.12|9681|Open
|10252|梅斯|Metz|NULL|NULL|meisi|欧洲|法国|NULL|6.176905,49.119666|1|47|NULL|13.13|9947|Open
|10253|哈当厄尔峡湾|Hardangerfjorden|NULL|NULL|hadangeerxiawan|欧洲|挪威|NULL|6.022078800000031,60.1903365|1|47|NULL|14.06|NULL|Non
|10254|梅尔克|Melk|NULL|NULL|meierke|欧洲|奥地利|NULL|15.34996000000001,48.22647|1|47|NULL|10.81|NULL|Close
|10255|菲安登|Vianden|NULL|NULL|feiandeng|欧洲|卢森堡|NULL|6.202120446032723,49.93485535205482|1|47|NULL|10.28|39038|Open
|10256|鲁汶|Leuven|NULL|NULL|luwen|欧洲|比利时|NULL|4.699564396789583,50.878193806043946|1|46|NULL|12.4|37623|Open
|10257|杜伊斯堡|Duisburg|NULL|NULL|duyisibao|欧洲|德国|NULL|6.763359268261752,51.43387281963665|1|46|NULL|12.6|30203|Open
|10258|阿比斯库|Abisko|NULL|NULL|abisiku|欧洲|瑞典|NULL|18.685076332092308,68.31865616238328|1|46|NULL|12.4|39506|Open
|10259|雷恩|Rennes|RNS|NULL|leien|欧洲|法国|NULL|-1.675708,48.113475|1|46|NULL|13.13|1473|Open
|10260|昂布瓦兹|Amboise|NULL|昂布瓦斯|angbuwazi|欧洲|法国|NULL|0.9844070000000329,47.413326|1|46|NULL|13.13|NULL|Close
|10261|维琴察|Vicenza|NULL|NULL|weiqinca|欧洲|意大利|NULL|11.5354214,45.5454787|1|46|NULL|12.4|3660|Open
|10262|圣塞瓦斯蒂安|San Sebastián|EAS|NULL|shengsaiwasidian|欧洲|西班牙|NULL|-1.9812313,43.318334|1|46|NULL|10.34|3481|Open
|10263|阿格里真托|Agrigento|NULL|NULL|agelizhentuo|欧洲|意大利|NULL|13.57654750000006,37.3110897|1|46|NULL|12.4|NULL|Close
|10264|兰卡斯特|Lancaster|NULL|NULL|lankasite|欧洲|英国|NULL|-2.8007399,54.046575|0|46|NULL|12.73|10259|Open
|10265|邓迪|Dundee|DND|NULL|dengdi|欧洲|英国|NULL|-2.970721,56.462018|0|46|NULL|12.73|1198|Open
|10266|布列塔尼|Brittany|NULL|NULL|bulietani|欧洲|法国|NULL|-2.9326435,48.2020471|1|46|NULL|13.13|9551|Open
|10267|亚眠|Amiens|NULL|NULL|yamian|欧洲|法国|NULL|2.295753,49.894067|1|46|NULL|13.13|9303|Open
|10268|巴里|Bari|BRI|NULL|bali|欧洲|意大利|NULL|16.8718715,41.1171432|1|46|NULL|12.4|1431|Open
|10269|福伦丹|Volendam|NULL|NULL|fulundan|欧洲|荷兰|NULL|5.0727015,52.4968694|1|46|NULL|14.12|9210|Open
|10270|圣地亚哥-德孔波斯特拉|Santiago de composte|NULL|NULL|shengdiyage-dekongbositela|欧洲|西班牙|NULL|-8.544844499999954,42.8782132|1|46|NULL|10.34|NULL|Close
|10271|格但斯克|Gdansk|GDN|NULL|gedansike|欧洲|波兰|NULL|18.6466384,54.3520252|1|46|NULL|10.41|1461|Open
|10272|施泰因|Stein am Rhein|NULL|NULL|shitaiyin|欧洲|瑞士|NULL|8.865681432324209,47.66451576329682|1|46|NULL|11.01|NULL|Close
|10273|因戈尔施塔特|Ingolstadt|NULL|英戈尔施塔特|yingeershitate|欧洲|德国|NULL|11.425797015344187,48.765997649065916|1|46|NULL|12.6|NULL|Close
|10274|加米施-帕腾基兴|Garmisch-Partenkirchen|NULL|NULL|jiamishi-patenjixing|欧洲|德国|NULL|11.095498399999997,47.4916945|1|46|NULL|12.6|NULL|Close
|10275|帕尔马|Parma|NULL|NULL|paerma|欧洲|意大利|NULL|10.327817769311537,44.80242896362585|1|46|NULL|12.4|29966|Open
|10276|摩德纳|Modena|NULL|NULL|modena|欧洲|意大利|NULL|10.9200867,44.6488366|1|45|NULL|12.4|9956|Open
|10277|阿卡雄|Arcachon|NULL|NULL|akaxiong|欧洲|法国|NULL|-1.1692000000000462,44.65322740528173|1|45|NULL|13.13|22297|Open
|10278|洛蒙德湖|Loch-Lomond|NULL|NULL|luomengdehu|欧洲|英国|NULL|-4.628860199999963,56.1113678|0|45|格拉斯哥|12.73|NULL|Close
|10279|吉维尼|Giverny|NULL|NULL|jiweini|欧洲|法国|NULL|1.5339331534423764,49.08108903819735|1|45|NULL|13.13|23107|Open
|10280|达勒姆|Durham|NULL|NULL|dalemu|欧洲|英国|NULL|-1.5848519999999553,54.77525|0|45|NULL|12.73|NULL|Close
|10281|波兹南|Poznan|POZ|NULL|bocinan|欧洲|波兰|NULL|16.9251681,52.406374|1|45|NULL|10.41|1463|Open
|10282|洛伊克巴德|Leukerbad|NULL|NULL|luoyikebade|欧洲|瑞士|NULL|7.6283846,46.3792287|1|45|NULL|11.01|3367|Open
|10283|索尔兹伯里|Salisbury|NULL|NULL|suoerciboli|欧洲|英国|NULL|-1.7944720000000416,51.068785|0|45|NULL|12.73|NULL|Close
|10284|波希米亚|Bohemia|NULL|NULL|boximiya|欧洲|捷克|NULL|14.432874399999946,50.0850736|1|45|NULL|11.6|NULL|Non
|10285|阿维拉|Ávila|NULL|NULL|aweila|欧洲|西班牙|NULL|-4.695817,40.662594|1|45|NULL|10.34|9338|Open
|10286|哥廷根|Gottingen|NULL|NULL|getinggen|欧洲|德国|NULL|9.9243452,51.5400673|1|45|NULL|12.6|9656|Open
|10287|斯旺西|Swansea|SWS|NULL|siwangxi|欧洲|英国|NULL|-3.943646,51.62144|0|45|NULL|12.73|5979|Open
|10288|爱尔福特|Erfurt|ERF|NULL|aierfute|欧洲|德国|NULL|11.0298799,50.9847679|1|45|NULL|12.6|3904|Open
|10289|萨尔茨卡默古特湖区|Salzkammergut|NULL|NULL|saercikamogutehuqu|欧洲|奥地利|NULL|13.780686500000002,47.8000727|1|45|萨尔茨堡|10.81|NULL|Close
|10290|罗弗敦群岛|Lofoten|NULL|NULL|luofudunqundao|欧洲|挪威|NULL|13.75,68.16667|1|45|NULL|14.06|NULL|Non
|10291|库尔|Chur|NULL|NULL|kuer|欧洲|瑞士|NULL|9.5267305,46.8572621|1|45|NULL|11.01|3147|Open
|10292|加来|Calais|NULL|NULL|jialai|欧洲|法国|NULL|1.8586860000000343,50.95129|1|44|NULL|13.13|NULL|Close
|10293|波鸿|Bochum|NULL|NULL|bohong|欧洲|德国|NULL|7.2162363,51.4818445|1|44|NULL|12.6|20785|Open
|10294|列日|Liège|NULL|NULL|lieri|欧洲|比利时|NULL|5.580181184130879,50.63225796991381|1|44|NULL|12.4|37620|Open
|10295|特隆赫姆|Trondheim|TRD|NULL|kelonghemu|欧洲|挪威|NULL|10.3950528,63.4305149|1|44|NULL|14.06|1734|Open
|10296|锡永|Sion|NULL|NULL|xiyong|欧洲|瑞士|NULL|7.362048700000059,46.2293518|1|44|NULL|11.01|NULL|Close
|10297|卡尔斯鲁厄|Karlsruhe|FKB|NULL|kaersilue|欧洲|德国|NULL|8.3799444,49.009148|1|44|NULL|12.6|6740|Open
|10298|塔拉戈纳|Tarragona|NULL|NULL|talagena|欧洲|西班牙|NULL|1.2452119,41.1190191|1|44|NULL|10.34|3170|Open
|10299|昆卡|Cuenca|NULL|NULL|kunka|欧洲|西班牙|NULL|-2.1367192,40.0705314|1|44|NULL|10.34|20786|Open
|10300|弗罗茨瓦夫|Wroclaw|WRO|NULL|fuluociwafu|欧洲|波兰|NULL|17.0385376,51.1078852|1|44|NULL|10.41|1448|Open
|10301|布拉德福德|Bradford|BRF|NULL|buladefude|欧洲|英国|NULL|-1.759398,53.795984|0|44|NULL|12.73|4845|Open
|10302|阿利坎特|Alicante|ALC|NULL|alikante|欧洲|西班牙|NULL|-0.4906855,38.3459963|1|44|NULL|10.34|1293|Open
|10303|圣莫里茨|Sankt Moritz|NULL|NULL|shengmolici|欧洲|瑞士|NULL|9.8361419,46.4950997|1|44|NULL|11.01|3144|Open
|10304|埃克塞特|Exeter|EXT|NULL|aikesaite|欧洲|英国|NULL|-3.533899,50.718412|0|44|NULL|12.73|6721|Open
|10305|林雪平|Linkoping|LPI|NULL|linxueping|欧洲|瑞典|NULL|15.6213727,58.410807|1|44|NULL|12.4|3746|Open
|10306|帕绍|Passau|NULL|NULL|pashao|欧洲|德国|NULL|13.4319466,48.5667364|1|44|NULL|12.6|10082|Open
|10307|康威|Conwy|NULL|NULL|kangwei|欧洲|英国|NULL|-3.82948,53.282872|0|44|NULL|12.73|9506|Open
|10308|凯米|Kemi|NULL|NULL|kaimi|欧洲|芬兰|NULL|24.5643979,65.7362771|2|44|NULL|12.86|3832|Open
|10309|加的斯|Cadiz|NULL|NULL|jiadesi|欧洲|西班牙|NULL|-6.2885962,36.5270612|1|44|NULL|10.34|4056|Open
|10310|费拉拉|Ferrara|NULL|NULL|feilala|欧洲|意大利|NULL|11.619787,44.8381237|1|44|NULL|12.4|9607|Open
|10311|科英布拉|Coimbra|NULL|NULL|keyingbula|欧洲|葡萄牙|NULL|-8.410257300000012,40.2033145|1|44|NULL|12.27|NULL|Close
|10312|明斯特|Münster|NULL|NULL|mingsite|欧洲|德国|NULL|7.626134699999966,51.9606649|1|44|NULL|12.6|31044|Open
|10313|博多|Bodo|BOO|NULL|boduo|欧洲|挪威|NULL|14.404916,67.2803556|1|43|NULL|14.06|4806|Open
|10314|圣安德烈|Szentendre|NULL|NULL|NULL|欧洲|匈牙利|NULL|19.066860200000065,47.6795337|-100|43|NULL|11.07|NULL|Close
|10315|比尔森|Plzen|NULL|NULL|biersen|欧洲|捷克|NULL|13.375980343933065,49.737232569618676|1|43|NULL|11.6|38693|Open
|10316|布雷根茨|Bregenz|NULL|NULL|buleigenci|欧洲|奥地利|NULL|9.742309999999975,47.50075|1|43|NULL|10.81|NULL|Close
|10317|卡塞尔|Kassel|NULL|NULL|kasaier|欧洲|德国|NULL|9.4797461,51.3127114|1|43|NULL|12.6|3462|Open
|10318|沃威克|Warwick|NULL|沃里克|woweike|欧洲|英国|NULL|-1.5849269999999933,52.28244727166742|0|43|NULL|12.73|NULL|Close
|10319|不伦瑞克|Braunschweig|NULL|NULL|bulunruike|欧洲|德国|NULL|10.526769599999966,52.2688736|1|43|NULL|12.6|NULL|Close
|10320|安提贝|Antibes|NULL|NULL|antibei|欧洲|法国|NULL|7.12510199999997,43.580418|1|43|NULL|13.13|NULL|Close
|10321|上特劳恩|Obertraun|NULL|NULL|shangtelaoen|欧洲|奥地利|NULL|13.6867755,47.5568951|1|43|NULL|10.81|10038|Open
|10322|鲁尔区|Ruhr|NULL|NULL|luerqu|欧洲|德国|NULL|6.862618999999995,51.4074205|1|43|波鸿&#124;波特洛普&#124;多特蒙德&#124;杜伊斯堡&#124;埃森&#124;格尔森基兴&#124;哈根&#124;哈姆&#124;海尔纳&#124;慕尔海姆&#124;奥伯豪森|12.6|NULL|Close
|10323|巴登|Baden|NULL|NULL|badeng|欧洲|瑞士|NULL|8.306473200000028,47.4737667|1|42|NULL|11.01|NULL|Close
|10324|布杰约维采|Ceske Budejovice|NULL|NULL|bujieyueweicai|欧洲|捷克|NULL|14.480255,48.9756578|1|42|NULL|11.6|3895|Open
|10325|勒阿弗尔|Le Havre|LEH|NULL|leafuer|欧洲|法国|NULL|0.107929,49.49437|1|42|NULL|13.13|1771|Open
|10326|那慕尔|Namur|NULL|NULL|namuer|欧洲|比利时|NULL|4.871985399999971,50.4673883|1|42|NULL|12.4|9993|Open
|10327|马格德堡|Magdeburg|996|NULL|magedebao|欧洲|德国|NULL|11.628878,52.130807|1|42|NULL|12.6|7750|Open
|10328|普拉托|Prato|NULL|NULL|pulatuo|欧洲|意大利|NULL|11.102228,43.8777049|1|42|NULL|12.4|3638|Open
|10329|丁克尔斯比尔|Dinkelsbuhl|024|NULL|dingkeersibier|欧洲|德国|NULL|10.3259395,49.0670187|1|42|NULL|12.6|7706|Open
|10330|纳尔维克|Narvik|NVK|NULL|naerweike|欧洲|挪威|NULL|17.4272612,68.4384984|1|42|NULL|14.06|5462|Open
|10331|凯西克|Keswick|NULL|NULL|kaixike|欧洲|英国|NULL|-3.134706000000051,54.601276|0|42|NULL|12.73|NULL|Close
|10332|墨西拿|Messina|NULL|NULL|moxina|欧洲|意大利|NULL|15.55401519999998,38.1938137|1|42|NULL|12.4|NULL|Close
|10333|皮亚琴察|Piacenza|NULL|NULL|piyaqinca|欧洲|意大利|NULL|9.6865813,45.0473754|1|42|NULL|12.4|10103|Open
|10334|拉罗谢尔|La Rochelle|NULL|NULL|laluoxieer|欧洲|法国|NULL|-1.1511390000000574,46.160329|1|42|NULL|13.13|NULL|Close
|10335|布莱克浦|Blackpool|NULL|NULL|bulaikepu|欧洲|英国|NULL|-3.0356748,53.8175053|0|42|NULL|12.73|3226|Open
|10336|阿纳姆|Arnhem|NULL|NULL|anamu|欧洲|荷兰|NULL|5.8987296,51.9851034|1|41|NULL|14.12|9320|Open
|10337|克拉根福|Klagenfurt|KLU|NULL|kelagenfu|欧洲|奥地利|NULL|14.308432100524897,46.627321097309924|1|41|NULL|10.81|795|Open
|10338|马尔肯|Marken|NULL|NULL|maerken|欧洲|荷兰|NULL|5.1032056999999895,52.4589926|1|41|NULL|14.12|NULL|Close
|10339|惠特比|Whitby|NULL|NULL|huitebi|欧洲|英国|NULL|-0.6143769682616949,54.486210352813835|0|41|NULL|12.73|NULL|Close
|10340|特鲁瓦|Troyes|NULL|NULL|teluwa|欧洲|法国|NULL|4.074735,48.2965919|1|41|NULL|13.13|9150|Open
|10341|帕多瓦|Padova|NULL|NULL|paduowa|欧洲|意大利|NULL|11.8767611,45.4064349|1|41|NULL|12.4|3645|Open
|10342|龙疆|Lungern|NULL|NULL|longjiang|欧洲|瑞士|NULL|8.159747400000015,46.7858435|1|41|NULL|11.01|NULL|Close
|10343|撒丁岛|Sardinia|NULL|NULL|sadingdao/萨丁尼亚|欧洲|意大利|NULL|9.014952536523424,40.12035012930604|1|41|NULL|12.4|31967|Open
|10344|基尔|Kiel|KEL|NULL|jier|欧洲|德国|NULL|10.1227652,54.3232927|1|41|NULL|12.6|1408|Open
|10345|艾于兰|Aurland|NULL|NULL|aiyulan|欧洲|挪威|NULL|7.201165100524918,60.903382179222845|1|41|NULL|14.06|39131|Open
|10346|林肯|Lincoln|NULL|NULL|linken|欧洲|英国|NULL|-0.540579,53.230688|0|41|NULL|12.73|20395|Open
|10347|摩泽尔河谷|Moselle valley|NULL|NULL|mozeerhegu|欧洲|德国|NULL|6.969386399999962,49.9202281|1|41|特里尔&#124;科布伦茨|12.6|NULL|Close
|10348|珀斯|Perth|NULL|NULL|bosi|欧洲|英国|NULL|-3.4308379999999943,56.3952315203775|0|41|NULL|12.73|34954|Open
|10349|滨海自由城|Villefranche-Sur-Mer|NULL|NULL|haibinziyoucheng|欧洲|法国|NULL|7.309177809509265,43.70413112143111|1|41|NULL|13.13|22695|Open
|10350|德绍|Dessau|NULL|NULL|deshao|欧洲|德国|NULL|12.242451599999981,51.8222436|1|41|NULL|12.6|NULL|Close
|10351|什未林|Schwerin|NULL|NULL|shenweilin|欧洲|德国|NULL|11.401249900000039,53.6355022|1|41|NULL|12.6|NULL|Close
|10352|米达尔|Myrdal|NULL|NULL|midaer|欧洲|挪威|NULL|7.122799999999984,60.73524|1|41|弗洛姆|14.06|NULL|Close
|10353|奥卢|Oulu|OUL|NULL|aolu|欧洲|芬兰|NULL|25.4714526,65.0126148|2|40|NULL|12.86|1793|Open
|10354|格拉斯米尔|Grasmere|NULL|NULL|gelasimier|欧洲|英国|NULL|-3.026029,54.45799|0|40|NULL|12.73|9665|Open
|10355|布雷西亚|Brescia|NULL|NULL|buleixiya|欧洲|意大利|NULL|10.2194437,45.5411875|1|40|NULL|12.4|3644|Open
|10356|安科纳|Ancona|AOI|NULL|ankena|欧洲|意大利|NULL|13.518915,43.6158299|1|40|NULL|12.4|1430|Open
|10357|罗斯基勒|Roskilde|NULL|NULL|luosijile|欧洲|丹麦|NULL|12.087158354492203,55.64217641739631|1|40|NULL|13.26|38059|Open
|10358|安博塞得|Ambleside|NULL|安布尔赛德|anbosaide|欧洲|英国|NULL|-2.961332999999968,54.428736|0|40|NULL|12.73|NULL|Close
|10359|巴约|Bayeux|NULL|NULL|bayue|欧洲|法国|NULL|-0.70314,49.276437|1|40|NULL|13.13|9364|Open
|10360|斯坦福德|Stamford|NULL|NULL|sitanfude|欧洲|英国|NULL|-0.4802160000000413,52.651282|0|40|NULL|12.73|35090|Open
|10361|纳沙泰尔|Neuchatel|NULL|NULL|nashataier|欧洲|瑞士|NULL|6.9309025317382975,46.99649182936965|1|40|NULL|11.01|40105|Open
|10362|韦吉斯|Weggis|NULL|NULL|weijisi|欧洲|瑞士|NULL|8.42899,47.0322|1|40|NULL|11.01|9221|Open
|10363|博讷|Beaune|NULL|NULL|bone|欧洲|法国|NULL|4.840004000000022,47.02603|1|40|NULL|13.13|NULL|Close
|10364|罗斯托克|Rostock|RLG|NULL|luosituoke|欧洲|德国|NULL|12.1004289,54.0834186|1|40|NULL|12.6|5768|Open
|10365|锡拉库萨|Siracusa|NULL|NULL|xilakusa|欧洲|意大利|NULL|15.286586100000022,37.0754739|1|40|NULL|12.4|NULL|Close
|10366|奥本|Oban|NULL|NULL|aoben|欧洲|英国|NULL|-5.470360354492186,56.41477716559177|0|40|NULL|12.73|33969|Open
|10367|奥尔堡|Aalborg|AAL|NULL|aoerbao|欧洲|丹麦|NULL|9.921747,57.0488195|1|40|NULL|13.26|1441|Open
|10368|布里格|Brig|NULL|NULL|bulige|欧洲|瑞士|NULL|7.9875465,46.3158171|1|40|NULL|11.01|9407|Open
|10369|的里雅斯特|Trieste|TRS|NULL|deliyasite|欧洲|意大利|NULL|13.7779716,45.6495354|1|40|NULL|12.4|1394|Open
|10370|莫尔日|Morges|NULL|NULL|moerri|欧洲|瑞士|NULL|6.4929214,46.5152627|1|40|NULL|11.01|9973|Open
|10371|尼永|Nyon|NULL|NULL|niyong|欧洲|瑞士|NULL|6.234062200000039,46.3881817|1|40|NULL|11.01|NULL|Close
|10372|科堡|Coburg|NULL|NULL|kebao|欧洲|德国|NULL|10.964107160852109,50.26397883264355|1|40|NULL|12.6|30643|Open
|10373|赫罗纳|Girona|NULL|NULL|heluona|欧洲|西班牙|NULL|2.8214264,41.9794005|1|40|NULL|10.34|3484|Open
|10374|布拉加|Braga|BGZ|NULL|NULL|欧洲|葡萄牙|NULL|-8.426507,41.5454486|-100|40|NULL|12.27|3728|Open
|10375|阿雷佐|Arezzo|NULL|NULL|aleizuo|欧洲|意大利|NULL|11.88230759999999,43.4669678|1|40|NULL|12.4|NULL|Close
|10376|蒂宾根|Tuebingen|NULL|NULL|dibingen|欧洲|德国|NULL|9.057644799999935,48.5216364|1|40|NULL|12.6|NULL|Close
|10377|普瓦捷|Poitiers|PIS|NULL|NULL|欧洲|法国|NULL|0.340375,46.580224|-100|40|NULL|13.13|1742|Open
|10378|潘普洛纳|Pamplona|PNA|NULL|panpuluona|欧洲|西班牙|NULL|-1.6482653,42.8116631|1|40|NULL|10.34|5626|Open
|10379|吕根岛|Rugen island|NULL|NULL|lvgendao|欧洲|德国|NULL|13.363049100000012,54.3519967|1|40|汉堡|12.6|NULL|Close
|10380|彭赞斯|Penzance|PZE|NULL|pengzansi|欧洲|英国|NULL|-5.537592,50.118798|0|39|NULL|12.73|5696|Open
|10381|北角|North Cape|NULL|NULL|beijiao|欧洲|挪威|NULL|25.802585830688486,71.16766697577911|1|39|NULL|14.06|NULL|Non
|10382|诺里奇|Norwich|NULL|NULL|nuoliqi|欧洲|英国|NULL|1.2973550000000387,52.6308859|0|39|NULL|12.73|NULL|Close
|10383|耶拿|Jena|NULL|NULL|yena|欧洲|德国|NULL|11.588850961901926,50.92756794603402|1|39|NULL|12.6|31749|Open
|10384|达沃斯|Davos|NULL|NULL|dawosi|欧洲|瑞士|NULL|9.8308896,46.8001204|1|39|NULL|11.01|3148|Open
|10385|吕勒奥|Lulea|LLA|NULL|lvleao|欧洲|瑞典|NULL|22.1531736,65.5838896|1|39|NULL|12.4|7335|Open
|10386|约克郡河谷国家公园|Yorkshire dales national park|NULL|NULL|yuekejunheguguojiagongyuan|欧洲|英国|NULL|-2.192543600000022,54.3046023|0|39|利兹|12.73|NULL|Close
|10387|克莱蒙费朗|Clermont-Ferrand|CFE|NULL|kelaimengfeilang|欧洲|法国|NULL|3.087025,45.777222|1|39|NULL|13.13|1716|Open
|10388|贝林佐纳|Bellinzona|NULL|NULL|beilinzuona|欧洲|瑞士|NULL|9.026917799999978,46.1984944|1|39|NULL|11.01|NULL|Close
|10389|敦刻尔克|Dunkerque|NULL|NULL|dunkeerke|欧洲|法国|NULL|2.375201899999979,51.03456|1|39|NULL|13.13|NULL|Close
|10390|蒂沃利|Tivoli|NULL|NULL|diwoli|欧洲|意大利|NULL|12.80132487777098,41.959848912439405|1|39|NULL|12.4|32157|Open
|10391|恩斯赫德|Enschede|NULL|NULL|ensihede|欧洲|荷兰|NULL|6.893661899999984,52.2215372|1|39|NULL|14.12|38385|Open
|10392|阿尔比|Albi|NULL|NULL|aerbi|欧洲|法国|NULL|2.146343,43.926896|1|38|NULL|13.13|9281|Open
|10393|圣保罗·德·旺斯|Saint-Paule-de-Venc|NULL|NULL|shengbaoluo.de.wang.si|欧洲|法国|NULL|7.12213799999995,43.696973|1|38|NULL|13.13|NULL|Close
|10394|桑坦德|Santander|SDR|NULL|sangtande|欧洲|西班牙|NULL|-3.8099803,43.4623057|1|38|NULL|10.34|3176|Open
|10395|赫尔|Hull|NULL|NULL|heer|欧洲|英国|NULL|-0.3367413,53.7456709|0|38|NULL|12.73|3549|Open
|10396|利摩日|Limoges|LIG|NULL|limori|欧洲|法国|NULL|1.261105,45.833619|1|38|NULL|13.13|1740|Open
|10397|北安普敦|Northampton|NULL|NULL|beianpudun|欧洲|英国|NULL|-0.902655999999979,52.240477|0|38|NULL|12.73|10030|Open
|10398|居德旺恩|Gudvangen|NULL|NULL|judewangen|欧洲|挪威|NULL|6.8387736,60.8787189|1|38|NULL|14.06|9678|Open
|10399|迈森|Meissen|NULL|NULL|maisen|欧洲|德国|NULL|13.497659200000044,51.1617842|1|38|NULL|12.6|NULL|Close
|10400|拉韦纳|Ravenna|NULL|NULL|laweina|欧洲|意大利|NULL|12.20352939999998,44.4183598|1|38|NULL|12.4|NULL|Close
|10401|奈梅亨|Nijmegen|NULL|NULL|naimeiheng|欧洲|荷兰|NULL|5.837226399999963,51.8125626|1|38|NULL|14.12|10021|Open
|10402|埃武拉|Evora|NULL|NULL|aiwula|欧洲|葡萄牙|NULL|-7.913502,38.571431|0|38|NULL|12.27|3734|Open
|10403|萨尔布吕肯|Saarbrücken|SCN|NULL|saerbulvken|欧洲|德国|NULL|6.9969327,49.2401572|1|38|NULL|12.6|5821|Open
|10404|布雷达|Breda|GLZ|NULL|buleida|欧洲|荷兰|NULL|4.7769505,51.58307|1|38|NULL|14.12|6828|Open
|10405|弗里堡|Fribourg|NULL|NULL|fulibao|欧洲|瑞士|NULL|7.1450962312133015,46.80187193626111|1|38|NULL|11.01|9631|Open
|10406|里窝那|Livorno|NULL|利沃诺|liwona|欧洲|意大利|NULL|10.310567399999968,43.548473|1|38|NULL|12.4|NULL|Close
|10407|萨莱诺|Salerno|NULL|NULL|salainuo|欧洲|意大利|NULL|14.77307427993162,40.683352030557586|1|38|NULL|12.4|10204|Open
|10408|腓特烈港|Friedrichshafen|FDH|NULL|feiteliegang|欧洲|德国|NULL|9.4800113,47.6617648|1|37|NULL|12.6|1413|Open
|10409|艾森施塔特|Eisenstadt|NULL|NULL|aisenshitate|欧洲|奥地利|NULL|16.527960000000007,47.84637|1|37|NULL|10.81|NULL|Close
|10410|拜罗伊特|Bayreuth|BYU|NULL|bailuoyite|欧洲|德国|NULL|11.5713346,49.9456399|1|37|NULL|12.6|4990|Open
|10411|布尔戈斯|Burgos|NULL|NULL|buergesi|欧洲|西班牙|NULL|-3.696906,42.3439925|1|37|NULL|10.34|3478|Open
|10412|奥洛莫乌茨|Olomouc|NULL|NULL|aoluomowuci|欧洲|捷克|NULL|17.25087869999993,49.593778|1|37|NULL|11.6|NULL|Close
|10413|伊维萨|Ibiza|NULL|NULL|yiweisa|欧洲|西班牙|NULL|1.4281149999999343,38.908951|1|37|NULL|10.34|NULL|Close
|10414|诺托|Noto|NULL|NULL|nuotuo|欧洲|意大利|NULL|15.065194499999961,36.8924433|1|37|NULL|12.4|NULL|Close
|20002|天津|Tianjin|TSN|NULL|tianjin|亚洲|中国|NULL|117.20098299999995,39.084158|8|85|NULL|7.8|3|Open
|20001|北京|Beijing|BJS|NULL|beijing|亚洲|中国|NULL|116.40752599999996,39.90403|8|95|NULL|7.8|1|Open
|20003|上海|Shanghai|SHA|NULL|shanghai|亚洲|中国|NULL|121.473701,31.230416|8|90|NULL|7.8|2|Open
|20004|重庆|Chongqing|CKG|NULL|chongqing|亚洲|中国|NULL|106.551557,29.56301|8|80|NULL|7.8|4|Open
|20005|石家庄|Shijiazhuang|SJW|NULL|shijiazhuang|亚洲|中国|NULL|114.51486,38.042307|8|70|NULL|7.8|428|Open
|20006|太原|Taiyuan|TYN|NULL|taiyuan|亚洲|中国|NULL|112.54887899999994,37.87059|8|75|NULL|7.8|105|Open
|20007|西安|Xian|SIA|NULL|xian|亚洲|中国|NULL|108.94017499999995,34.341568|8|88|NULL|7.8|10|Open
|20008|济南|Jinan|TNA|NULL|jinan|亚洲|中国|NULL|117.120497,36.650997|8|86|NULL|7.8|144|Open
|20009|郑州|Zhengzhou|CGO|NULL|zhengzhou|亚洲|中国|NULL|113.62536799999998,34.7466|8|75|NULL|7.8|559|Open
|20010|沈阳|Shenyang|SHE|NULL|shenyang|亚洲|中国|NULL|123.43147499999998,41.805698|8|80|NULL|7.8|451|Open
|20011|长春|Changchun|CGQ|NULL|changchun|亚洲|中国|NULL|125.32354399999997,43.817072|8|75|NULL|7.8|158|Open
|20012|哈尔滨|Haerbin|HRB|NULL|haerbin|亚洲|中国|NULL|126.53625999999997,45.80227|8|85|NULL|7.8|5|Open
|20013|南京|Nanjing|NKG|NULL|nanjing|亚洲|中国|NULL|118.796877,32.060255|8|85|NULL|7.8|12|Open
|20014|杭州|Hangzhou|HGH|NULL|hangzhou|亚洲|中国|NULL|120.15507000000002,30.274085|8|82|NULL|7.8|17|Open
|20015|合肥|Hefei|HFE|NULL|hefei|亚洲|中国|NULL|117.22723900000005,31.820587|8|80|NULL|7.8|278|Open
|20016|南昌|Nanchang|KHN|NULL|nanchang|亚洲|中国|NULL|115.85812099999998,28.683213|8|75|NULL|7.8|376|Open
|20017|福州|Fuzhou|FOC|NULL|fuzhou|亚洲|中国|NULL|119.29649399999994,26.074508|8|70|NULL|7.8|258|Open
|20018|武汉|Wuhan|WUH|NULL|wuhan|亚洲|中国|NULL|114.30539299999998,30.593099|8|85|NULL|7.8|477|Open
|20019|长沙|Changsha|CSX|NULL|changsha|亚洲|中国|NULL|112.93881399999998,28.228209|8|80|NULL|7.8|206|Open
|20020|成都|Chengdu|CTU|NULL|chengdu|亚洲|中国|NULL|104.06654100000003,30.572269|8|85|NULL|7.8|28|Open
|20021|贵阳|Guiyang|KWE|NULL|guiyang|亚洲|中国|NULL|106.63015399999995,26.647661|8|80|NULL|7.8|38|Open
|20022|昆明|Kunming|KMG|NULL|kunming|亚洲|中国|NULL|102.83289200000001,24.880095|8|88|NULL|7.8|34|Open
|20023|广州|Guangzhou|CAN|NULL|guangzhou|亚洲|中国|NULL|113.26443500000005,23.129163|8|89|NULL|7.8|32|Open
|20024|海口|Haikou|HAK|NULL|haikou|亚洲|中国|NULL|110.32885899999996,20.030793|8|86|NULL|7.8|42|Open
|20025|兰州|Lanzhou|LHW|NULL|lanzhou|亚洲|中国|NULL|103.83430399999997,36.061089|8|82|NULL|7.8|100|Open
|20026|西宁|Xining|XNN|NULL|xining|亚洲|中国|NULL|101.77822800000001,36.617144|8|75|NULL|7.8|124|Open
|20027|呼和浩特|Huhehaote|HET|NULL|huhehaote|亚洲|中国|NULL|111.74918100000002,40.842585|8|75|NULL|7.8|103|Open
|20028|乌鲁木齐|Wulumuqi|URC|NULL|wulumuqi|亚洲|中国|NULL|87.616848,43.825592|8|80|NULL|7.8|39|Open
|20029|拉萨|Lasa|LXA|NULL|lasa|亚洲|中国|NULL|91.14085599999998,29.645554|8|86|NULL|7.8|41|Open
|20030|南宁|Nanning|NNG|NULL|nanning|亚洲|中国|NULL|108.366129,22.817239|8|75|NULL|7.8|380|Open
|20031|银川|Yinchuan|INC|NULL|yinchuan|亚洲|中国|NULL|106.230909,38.487194|8|75|NULL|7.8|99|Open
|20032|唐山|Tangshan|TVS|NULL|tangshan|亚洲|中国|NULL|118.18019400000003,39.63086699999999|8|70|NULL|7.8|468|Open
|20033|大同|Datong|DAT|NULL|datong|亚洲|中国|NULL|113.30012599999998,40.076816|8|70|NULL|7.8|136|Open
|20034|青岛|Qingdao|TAO|NULL|qingdao|亚洲|中国|NULL|120.38264000000004,36.067082|8|82|NULL|7.8|7|Open
|20035|大连|Dalian|DLC|NULL|dalian|亚洲|中国|NULL|121.61468200000001,38.91400300000001|8|83|NULL|7.8|6|Open
|20036|吉林|Jilin|JIL|NULL|jilin|亚洲|中国|NULL|126.54957200000001,43.837883|8|70|NULL|7.8|159|Open
|20037|苏州|Suzhou|SZV|NULL|suzhou|亚洲|中国|NULL|120.58531600000003,31.298886|8|83|NULL|7.8|14|Open
|20038|宁波|Ningbo|NGB|NULL|ningbo|亚洲|中国|NULL|121.54399000000001,29.868336|8|75|NULL|7.8|375|Open
|20039|厦门|Xiamen|XMN|NULL|xiamen|亚洲|中国|NULL|118.089425,24.479834|8|85|NULL|7.8|25|Open
|20040|深圳|Shenzhen|SZX|NULL|shenzhen|亚洲|中国|NULL|114.05786799999998,22.543099|8|86|NULL|7.8|30|Open
|20041|三亚|Sanya|SYX|NULL|sanya|亚洲|中国|NULL|109.51190900000006,18.252847|8|88|NULL|7.8|43|Open
|20042|无锡|Wuxi|WUX|NULL|wuxi|亚洲|中国|NULL|120.31191000000001,31.49117|8|70|NULL|7.8|13|Open
|20043|香港|HongKong|HKG|NULL|xianggang|亚洲|中国|NULL|114.10949700000003,22.396428|8|90|NULL|7.8|58|Open
